<?xml version="1.0" encoding="UTF-8" standalone="no"?>

<!-- Created with Inkscape (http://www.inkscape.org/) -->


<svg
   xmlns:dc="http://purl.org/dc/elements/1.1/"
   xmlns:cc="http://creativecommons.org/ns#"
   xmlns:rdf="http://www.w3.org/1999/02/22-rdf-syntax-ns#"
   xmlns:svg="http://www.w3.org/2000/svg"
   xmlns="http://www.w3.org/2000/svg"
   viewBox="0 0 16 16"
   version="1.1"
   id="svg5751"
   height="16"
   width="16">
  <defs
     id="defs5753">
    <marker
       style="overflow:visible;"
       id="Arrow2Mend"
       refX="0.0"
       refY="0.0"
       orient="auto">
      <path
         transform="scale(0.6) rotate(180) translate(0,0)"
         d="M 8.7185878,4.0337352 L -2.2072895,0.016013256 L 8.7185884,-4.0017078 C 6.9730900,-1.6296469 6.9831476,1.6157441 8.7185878,4.0337352 z "
         style="fill-rule:evenodd;stroke-width:0.625;stroke-linejoin:round;stroke:#000000;stroke-opacity:1;fill:#000000;fill-opacity:1"
         id="path4821" />
    </marker>
  </defs>
  <metadata id="metadata5756"
   xmlns:sodipodi="http://sodipodi.sourceforge.net/DTD/sodipodi-0.dtd"
   xmlns:inkscape="http://www.inkscape.org/namespaces/inkscape"
   width="16"
   height="16"
   id="svg4136"
   version="1.1"
   inkscape:version="0.91 r13725"
   viewBox="0 0 16 16"
   sodipodi:docname="flood.svg">
  <defs
     id="defs4138" />
  <sodipodi:namedview
     id="base"
     pagecolor="#ffffff"
     bordercolor="#666666"
     borderopacity="1.0"
     inkscape:pageopacity="0.0"
     inkscape:pageshadow="2"
     inkscape:zoom="32"
     inkscape:cx="5.2812501"
     inkscape:cy="6.8697215"
     inkscape:current-layer="layer1"
     showgrid="true"
     inkscape:grid-bbox="true"
     inkscape:document-units="px"
     inkscape:window-width="1920"
     inkscape:window-height="1138"
     inkscape:window-x="-8"
     inkscape:window-y="-8"
     inkscape:window-maximized="1">
    <inkscape:grid
       type="xygrid"
       id="grid4684" />
  </sodipodi:namedview>
  <metadata id="metadata4141">

    <rdf:RDF>
      <cc:Work
         rdf:about="">
        <dc:format>image/svg+xml</dc:format>
        <dc:type
           rdf:resource="http://purl.org/dc/dcmitype/StillImage" />
        <dc:title></dc:title>
      </cc:Work>
    </rdf:RDF>
  </metadata>
  <g id="layer1">
    <path
       d="M 5.4662414,8.8087931 A 2.4990554,2.5760732 0 0 1 4.2037604,11.047394 2.4990554,2.5760732 0 0 1 1.691886,11.024187 2.4990554,2.5760732 0 0 1 0.46853204,8.7626206"
       id="path7345"
       style="fill:#000000;fill-opacity:0;stroke:#000087;stroke-width:1.254;stroke-linecap:round;stroke-linejoin:round;stroke-miterlimit:4;stroke-dasharray:none;stroke-dashoffset:0;stroke-opacity:1" />
    <path
       style="fill:#000000;fill-opacity:0;stroke:#000087;stroke-width:1.254;stroke-linecap:round;stroke-linejoin:round;stroke-miterlimit:4;stroke-dasharray:none;stroke-dashoffset:0;stroke-opacity:1"
       id="path7387"
       d="M 10.474986,8.8996077 A 2.4990554,2.5760732 0 0 1 9.2125046,11.138208 2.4990554,2.5760732 0 0 1 6.7006303,11.115002 2.4990554,2.5760732 0 0 1 5.4772763,8.8534352" />
    <path
       d="M 15.524451,8.945015 A 2.4990554,2.5760732 0 0 1 14.26197,11.183616 2.4990554,2.5760732 0 0 1 11.750095,11.160409 2.4990554,2.5760732 0 0 1 10.526741,8.8988425"
       id="path7389"
       style="fill:#000000;fill-opacity:0;stroke:#000087;stroke-width:1.254;stroke-linecap:round;stroke-linejoin:round;stroke-miterlimit:4;stroke-dasharray:none;stroke-dashoffset:0;stroke-opacity:1" />
    <path
       style="fill:#000000;fill-opacity:0;stroke:#000087;stroke-width:1.254;stroke-linecap:round;stroke-linejoin:round;stroke-miterlimit:4;stroke-dasharray:none;stroke-dashoffset:0;stroke-opacity:1"
       id="path7391"
       d="M 5.4662414,12.232554 A 2.4990554,2.5760732 0 0 1 4.2037604,14.471155 2.4990554,2.5760732 0 0 1 1.691886,14.447949 2.4990554,2.5760732 0 0 1 0.46853204,12.186382" />
    <path
       d="M 10.474986,12.323369 A 2.4990554,2.5760732 0 0 1 9.2125046,14.56197 2.4990554,2.5760732 0 0 1 6.7006303,14.538763 2.4990554,2.5760732 0 0 1 5.4772763,12.277197"
       id="path7393"
       style="fill:#000000;fill-opacity:0;stroke:#000087;stroke-width:1.254;stroke-linecap:round;stroke-linejoin:round;stroke-miterlimit:4;stroke-dasharray:none;stroke-dashoffset:0;stroke-opacity:1" />
    <path
       style="fill:#000000;fill-opacity:0;stroke:#000087;stroke-width:1.254;stroke-linecap:round;stroke-linejoin:round;stroke-miterlimit:4;stroke-dasharray:none;stroke-dashoffset:0;stroke-opacity:1"
       id="path7395"
       d="m 15.524452,12.368776 a 2.4990554,2.5760732 0 0 1 -1.262481,2.238601 2.4990554,2.5760732 0 0 1 -2.511875,-0.02321 2.4990554,2.5760732 0 0 1 -1.223354,-2.261567" />
    <path
       id="path7447"
       d="m 3.5138615,7.6970247 c 0,-4.0496085 0,-4.0496085 0,-4.0496085 l 0,0 0,0 0,0 0,0"
       style="fill:none;fill-rule:evenodd;stroke:#000000;stroke-width:1.27935231;stroke-linecap:round;stroke-linejoin:miter;stroke-miterlimit:4;stroke-dasharray:none;stroke-opacity:1" />
    <path
       style="fill:none;fill-rule:evenodd;stroke:#000000;stroke-width:1.27558494;stroke-linecap:round;stroke-linejoin:miter;stroke-miterlimit:4;stroke-dasharray:none;stroke-opacity:1"
       d="m 12.343564,7.7412785 c 0,-4.0853908 0,-4.0853908 0,-4.0853908 l 0,0 0,0 0,0 0,0"
       id="path7451" />
    <path
       id="path7455"
       d="m 1.0361386,4.0618811 6.4420793,-3.15346539 0.8108911,0 6.44208,3.06336639"
       style="fill:none;fill-rule:evenodd;stroke:#000000;stroke-width:1.5;stroke-linecap:round;stroke-linejoin:miter;stroke-miterlimit:4;stroke-dasharray:none;stroke-opacity:1" />

    <path
       style="fill:none;fill-rule:evenodd;stroke:#0000ff;stroke-width:1px;stroke-linecap:round;stroke-linejoin:round;stroke-opacity:1"
       d="M 0.4375,10.6875 C 0.4375,10.6875 2.509288,9 4,9 c 1.490712,0 2.509288,2 4,2 1.490712,0 2.509288,-2 4,-2 1.490712,0 3.53125,1.78125 3.53125,1.78125"
       id="path5915"
       inkscape:connector-curvature="0"
       sodipodi:nodetypes="csssc" />
    <path
       style="fill:none;fill-rule:evenodd;stroke:#0000ff;stroke-width:1px;stroke-linecap:butt;stroke-linejoin:miter;stroke-opacity:1"
       d="m 3.6875,9.15625 c 0,0 -0.1531686,-1.3511673 0,-2 0.1712477,-0.725417 0.6023139,-1.3696022 1,-2 C 5.2300367,4.2962403 5.7192276,3.3182027 6.5625,2.75 7.4785601,2.1327525 8.6643471,1.6399897 9.75,1.84375 10.648898,2.0124593 11.499985,2.6968435 11.9375,3.5 c 0.199881,0.3669266 0.584284,1.2180674 0.25,1.46875 -0.427219,0.3203752 -1.124525,-0.8304967 -1.65625,-0.78125 -0.5816803,0.053873 -1.1719711,0.422875 -1.5,0.90625 -0.391377,0.5767232 -0.5564535,1.398766 -0.34375,2.0625 0.143862,0.4489164 0.6175768,0.7243649 1,1 0.604664,0.4358173 2,1 2,1 l 0,0"
       id="path5921"
       inkscape:connector-curvature="0"
       sodipodi:nodetypes="csssssssssssc" />
  </g>
</svg>
