1,13.17615691150,55.69834655260,39,1409.4065705813837,250.35859020188212,427.2564983963356,652.633695371607
2,13.17622036380,55.69860036170,44,1409.4065705813837,250.35859020188212,427.2564983963356,652.633695371607
3,13.17622036380,55.69882244480,22,1408.6319664089642,324.3881343864886,427.98710283085626,578.6041511870006
4,13.17672798220,55.69879071860,21,1408.6319664089642,324.3881343864886,427.98710283085626,578.6041511870006
5,13.17628381610,55.69923488470,33,1408.6319664089642,324.3881343864886,427.98710283085626,578.6041511870006
6,13.17629967920,55.69945696770,44,1344.7270929813917,388.2930078140613,364.0822294032835,514.6992777594279
7,13.17576033470,55.69948869380,55,1363.376491742093,269.98871228541293,349.3864252039397,500.00347356008416
8,13.17574447160,55.69904452780,54,1413.2105796301444,220.15462439736143,397.0525325918149,549.8375614481356
9,13.17569688240,55.69860036170,33,1409.4065705813837,250.35859020188212,427.2564983963356,652.633695371607
10,13.17564929320,55.69836241560,6,1489.0343427791586,95.6202426818144,272.5181508762679,674.3719431636825
11,13.17514167480,55.69860036170,77,1489.0343427791586,95.6202426818144,272.5181508762679,674.3719431636825
12,13.17520512710,55.69926661080,86,1413.2105796301444,220.15462439736143,397.0525325918149,549.8375614481356
13,13.17522099020,55.69955214610,65,1363.376491742093,269.98871228541293,349.3864252039397,500.00347356008416
14,13.17523685330,55.70012321680,44,1314.9450578804758,318.4201461470301,300.9549913423225,451.57203969846694
15,13.17476096110,55.70015494290,32,1284.535780282169,176.8979081944535,0.0,421.16276210016053
16,13.17479268720,55.70056738280,55,1185.3810125684276,276.0526759081948,99.1547677137413,322.00799438641917
17,13.17474509800,55.69994872300,22,1284.535780282169,176.8979081944535,0.0,421.16276210016053
18,13.17466578260,55.69955214610,55,1336.103639476033,125.3300490005898,51.5678591938637,472.7306212940243
19,13.17460233030,55.69929833700,33,1336.103639476033,125.3300490005898,51.5678591938637,472.7306212940243
20,13.17460233030,55.69890176010,66,1454.9695676875917,6.4641207890308,170.4337874054227,591.5965495055832
21,13.17758458810,55.69986940760,54,1095.273341046466,474.12036889640586,515.9380797517563,656.8033809169331
22,13.17709283280,55.70018666910,22,1229.0166485772152,412.54505890869325,382.19477222100693,532.8118205771514
23,13.17663280370,55.70045634130,55,1295.928142188165,437.0919586072879,315.283278610057,465.9003269662014
24,13.17612518540,55.70083705510,33,1298.456526390677,461.3643680469776,284.4664598525241,435.0835082086685
25,13.17558584090,55.70113845350,77,1233.3548167681374,396.26265842443775,219.36475022998428,369.9817985861287
26,13.17514167480,55.70151916720,78,1155.0464041774858,317.95424583378656,141.0563376393331,291.6733859954774
27,13.17461819340,55.70183642870,99,1118.7125091633936,342.7211793132288,165.82327111877532,255.3394909813851
28,13.17750527280,55.70201092250,55,882.7249750767596,692.4677814748017,610.0986414058615,471.8872013855175
29,13.17839360490,55.70212196400,44,800.9909461729045,867.2525228835943,690.3546146891409,552.1431746687969
30,13.17771149270,55.70443797270,78,589.590330435241,871.8433580413819,694.9454498469285,556.7340098265844
31,13.17610932230,55.70232818400,87,821.8769940438507,639.5566944327722,462.6587862383188,324.4473462179748
32,13.17471337180,55.70258199310,44,1058.9353117934647,510.67164182625334,333.77373363179987,87.38902846836051
33,13.17574447160,55.70310547460,76,801.1213198767625,825.3045427236837,648.4066345292302,510.19519450888623
34,13.17498304410,55.70315306380,87,944.2130330422275,646.633004976851,469.7350967823976,331.52365676205363
35,13.17422161660,55.70313720070,7,894.0525577423545,918.2357805892757,741.3378723948223,603.1264323744782
36,13.17349191520,55.70316892690,4,1011.1857963250449,541.1392753138837,364.2413671194302,226.02992709908625
37,13.17268289850,55.70312133760,2,1029.5177708927977,559.4712498816365,382.5733416871831,244.36190166683906
38,13.17263530920,55.70396208050,66,957.0005681357796,829.7319106273608,652.8340024329074,514.6225624125633
39,13.17411057510,55.70388276520,75,913.78605910474,937.9692819516613,761.0713737572079,622.8599337368638
40,13.17463405650,55.70389862820,3,849.1602439409018,873.343466787823,696.4455585933696,558.2341185730255
41,13.17544307320,55.70389862820,76,846.9487993367904,871.1320221837118,694.2341139892584,556.0226739689142
42,13.17490372870,55.70434279430,6,700.6630487570451,1310.8119154263434,1133.9140072318896,995.7025672115456
43,13.17342846290,55.70437452040,8,796.230287155182,1406.3791538244802,1229.4812456300265,1091.2698056096824
44,13.17620450070,55.70494559110,8,648.2758730811379,1258.4247397504362,1081.5268315559824,943.3153915356384
45,13.17552238860,55.70491386490,4,662.9074282106806,1273.0562948799789,1096.158386685525,957.946946665181
46,13.17476096110,55.70494559110,77,700.6630487570451,1310.8119154263434,1133.9140072318896,995.7025672115456
47,13.1739995335,55.7050249064,20,706.406860614538,1316.5557272838362,1139.6578190893824,1001.4463790690386
48,13.1732063799,55.7051042218,36,752.2206077401471,1362.3694744094453,1185.4715662149915,1047.2601261946475
49,13.1718104294,55.7036130929,89,1001.0191551363486,785.7133236267917,608.8154154323383,470.6039754119944
50,13.1724449523,55.7015191672,33,1197.5046997901154,551.0549815265019,374.1570733320485,334.1316816081071
51,13.1718738817,55.7015191672,65,1230.9436989183464,584.4939806547328,407.5960724602794,367.57068073633803
52,13.1713662634,55.7015191672,45,1248.7898205918295,602.3401023282157,425.4421941337623,385.41680240982095
53,13.1706682881,55.7015984826,66,1306.5623067178467,660.1125884542329,483.21468025977947,443.1892885358381
54,13.1709538235,55.7021061009,77,1207.0661580135493,579.2700210889371,402.37211289448373,362.34672117054237
55,13.1723973631,55.7020267856,65,1114.1276266594598,503.16859591464174,326.2706877201883,250.75460847745114
56,13.1711441803,55.7005197936,33,1386.3312588304616,739.8815405668474,562.983632372394,522.9582406484526
57,13.1721594170,55.7005356567,66,1277.7265437799942,631.2768255163804,454.378917321927,414.35352559798565
58,13.1709379604,55.6993300631,76,2159.7029796839684,874.816763342998,1051.7146715374515,1468.8293393429674
59,13.1709696865,55.6990762539,87,2159.7029796839684,874.816763342998,1051.7146715374515,1468.8293393429674
60,13.1712552218,55.6988541709,44,2303.0559750019033,1018.1697586609332,1195.067666855387,1612.1823346609026
61,13.1713186741,55.6986320879,64,2303.0559750019033,1018.1697586609332,1195.067666855387,1612.1823346609026
62,13.1716517987,55.6984575941,79,2303.0559750019033,1018.1697586609332,1195.067666855387,1612.1823346609026
63,13.1792819370,55.7008846443,55,922.071864513368,991.3820605229689,814.4841523285155,676.2727123081715
64,13.1793675976,55.7048393085,87,0.0,1461.4336884766233,1284.5357802821695,1146.3243402618252
65,13.1793834606,55.7050931177,65,216.4354315348034,1244.9982569418196,1068.1003487473658,929.8889087270218
66,13.1798276267,55.7048393085,44,216.4354315348034,1244.9982569418196,1068.1003487473658,929.8889087270218
67,13.1706746334,55.7036178518,77,1053.4111754021715,733.3213033609688,556.4233951665154,418.2119551461715
68,13.1695959444,55.7036337149,88,1178.440899400916,858.351027359714,681.4531191652605,543.2416791449165
69,13.1691200522,55.7044268686,44,1286.1362614531067,966.0463894119041,789.1484812174507,650.9370411971067
70,13.1694055875,55.7044268686,63,1178.440899400916,858.351027359714,681.4531191652605,543.2416791449165
71,13.1684379400,55.7044110055,79,1308.7160596628796,988.6261876216772,811.7282794272238,673.5168394068796
72,13.1701352889,55.7044268686,90,1200.1627817903027,880.0729097491007,703.1750015546473,564.9635615343033
73,13.1704684134,55.7044110055,80,1178.3993064794445,858.3094344382423,681.4115262437889,543.2000862234448
74,13.1697863013,55.7043634163,55,1200.1627817903027,880.0729097491007,703.1750015546473,564.9635615343033
75,13.16881865380,55.70337990570,35,1292.0967837878634,822.0502627767024,645.152354582249,506.94091456190506
76,13.1687234753,55.7036971672,65,1236.9390685335593,916.8491964923571,739.9512882979037,601.7398482775598
77,13.1693104091,55.7031578227,75,1227.8809121517997,757.834391140639,580.9364829461856,442.72504292584165
78,13.1701352889,55.7031260966,87,1327.5904462118037,709.940223861925,533.0423156674716,491.83046538963697
79,13.1708967164,55.7030943704,54,1099.5273062567528,687.2051725063874,510.307264311934,372.09582429158996
80,13.1705794549,55.7031260966,34,1327.5904462118037,709.940223861925,533.0423156674716,491.83046538963697
81,13.1691517783,55.7020474076,76,1326.712922742463,709.0627003925845,532.1647921981311,490.9529419202965
82,13.16873933840,55.70247571060,55,1326.712922742463,709.0627003925845,532.1647921981311,490.9529419202965
83,13.1696752597,55.7024757106,44,1349.0804831240916,731.4302607742131,554.5323525797597,513.3205023019251
84,13.1693262721,55.7026502044,43,1349.0804831240916,731.4302607742131,554.5323525797597,513.3205023019251
85,13.1704049611,55.7026819305,57,1327.5904462118037,709.940223861925,533.0423156674716,491.83046538963697
86,13.1703415088,55.7022060383,75,1218.2373887669878,600.5871664171094,423.689258222656,382.4774079448214
87,13.17162641780,55.70233294290,64,1159.8372435907172,548.8782128458995,371.98030465144603,296.46422540870884
88,13.1723402561,55.7024281213,86,1114.1276266594598,503.16859591464174,326.2706877201883,250.75460847745114
89,13.1728637375,55.7022694906,45,1115.458479223146,469.00876095953214,292.1108527650787,252.08546104113728
90,13.1743548664,55.7012225278,35,1161.2319231922952,300.2017652843274,123.3038570898739,297.85890501028655
91,13.1742755510,55.7004928264,65,1284.535780282169,176.8979081944535,0.0,421.16276210016053
92,13.1742279618,55.6999852080,77,1284.535780282169,176.8979081944535,0.0,421.16276210016053
93,13.1721657623,55.6996679466,45,1385.582461613068,739.1327433494539,562.2348351550005,522.2094434310592
94,13.1718485008,55.6997631250,76,1407.899258074283,761.449539810669,584.5516316162156,544.5262398922741
95,13.1715788285,55.6997948512,55,1407.899258074283,761.449539810669,584.5516316162156,544.5262398922741
96,13.1712139779,55.6998900296,86,1462.6019547636297,816.152236500016,639.2543283055626,599.2289365816212
97,13.1705477288,55.7006197310,9,1386.3312588304616,739.8815405668474,562.983632372394,522.9582406484526
98,13.1694690398,55.7004769633,97,1498.294272963151,878.0785945549126,701.1806863604592,661.1552946365175
99,13.1776543856,55.7010004447,46,1022.7152494858818,552.4775070656794,594.2952179210299,611.8774757946396
100,13.1762108460,55.7016984200,7,1187.230767941206,638.967097973995,462.06918977954155,215.6844846161021
101,13.1728637375,55.7002707434,5,1277.7265437799942,631.2768255163804,454.378917321927,414.35352559798565
102,13.1728161483,55.7007466356,54,1244.5456357961607,598.0959175325469,421.1980093380934,381.17261761415205
103,13.1728161483,55.6998424404,75,1366.753472246659,720.3037539830449,543.4058457885915,503.3804540646501
104,13.1728320113,55.7000169342,34,1366.753472246659,720.3037539830449,543.4058457885915,503.3804540646501
105,13.1696593967,55.6993665482,84,2114.2366010649057,829.3503847239351,1006.2482929183885,1423.3629607239043
106,13.1684696662,55.7005245525,68,1556.4930392885776,936.2773608803391,759.3794526858857,719.354060961944
107,13.1693104091,55.7014446108,8,1352.2450808319227,732.0294024236839,555.1314942292305,515.1061025052892
108,13.1702780565,55.7014763369,4,1322.963612224777,676.5138939611631,499.61598576670974,459.5905940427684
109,13.1741010572,55.7021425860,9,1029.2346101018402,480.97094013462873,304.07303194017527,117.08973015998511
110,13.1735934389,55.7038716610,51,909.0594939402436,877.6729848228968,700.7750766284433,562.5636366080994
111,13.1731016836,55.7035068103,10,944.333634510637,842.3988442525033,665.5009360580499,527.2894960377058
112,13.17373620650,55.70350681030,13,909.0594939402436,877.6729848228968,700.7750766284433,562.5636366080994
113,13.1745928125,55.7035702626,43,835.4703679560217,859.653590802943,682.7556826084896,544.5442425881454
114,13.1753383769,55.7034909472,12,798.3639435954923,822.5471664424134,645.64925824796,507.437818227616
115,13.1726416545,55.7036019888,42,957.0005681357796,829.7319106273608,652.8340024329074,514.6225624125633
116,13.1719278162,55.7033323165,23,1021.2367938837472,820.9894759735278,644.0915677790744,505.88012775873034
117,13.1716581439,55.7042047855,33,1066.184402355304,850.8785708457474,673.980662651294,535.7692226309499
118,13.1765122444,55.7056641883,44,612.1595451530519,1222.3084118223503,1045.4105036278966,907.1990636075525
119,13.1748466217,55.7060766282,23,548.7707883312685,1158.9196550005668,982.0217468061131,843.8103067857692
120,13.1728320113,55.7055531468,22,767.3051003479852,1377.4539670172833,1200.5560588228295,1062.3446188024855
121,13.1729906421,55.7058545452,12,795.0161870551701,1405.1650537244682,1228.2671455300144,1090.0557055096704
122,13.1802083405,55.7014128846,11,969.6515897105899,1038.961785720191,862.0638775257374,723.8524375053933
123,13.1794310499,55.7022853537,11,735.4133140023434,919.1460549721469,742.2481467776935,604.0367067573494
124,13.1790820622,55.7030309181,82,692.7734437253573,827.3059535902977,650.4080453958443,512.1966053755002
125,13.1800338467,55.7030785073,23,583.5151628647588,936.5642344508963,759.6663262564429,621.4548862360988
126,13.1800338467,55.7025708890,44,735.4133140023434,919.1460549721469,742.2481467776935,604.0367067573494
127,13.1790820622,55.7025074367,44,815.9656623376,882.2272390482901,705.3293308538367,567.1178908334925
128,13.1787965269,55.7013494323,56,857.8592202983472,927.1694163079485,750.2715081134951,612.0600680931509
129,13.1783840870,55.7013335693,78,838.1076671707428,907.417863180344,730.5199549858906,592.3085149655466
130,13.1787965269,55.7019205030,90,838.1076671707428,907.417863180344,730.5199549858906,592.3085149655466
131,13.1763694767,55.7038557979,23,858.1107785421096,882.2940013890309,705.3960931945775,567.1846531742334
132,13.1761315306,55.7042365117,45,888.2015011858342,912.3847240327555,735.486815838302,597.275375817958
133,13.1776543856,55.7038875241,6,719.1875938482332,781.5164204332625,604.6185122388091,466.40707221846515
134,13.1729589159,55.7012701170,34,1184.4138851744801,537.9641669108663,361.0662587164129,321.0408669924715
135,13.1706587703,55.7008735401,56,1417.4950613520905,771.0453430884768,594.1474348940234,554.1220431700821
136,13.1712615671,55.7030785073,78,1124.3617680587215,662.3707107044183,485.47280250996494,347.26136248962104
137,13.1802721363,55.7055622376,94,268.415604745468,1296.9784301524842,1120.0805219580304,981.8690819376864
138,13.1809274763,55.7061520436,56,324.50796168002705,1353.0707870870433,1176.1728788925896,1037.9614388722457
139,13.1809602433,55.7055950046,78,300.40563801864147,1360.6646253208653,1183.7667171264115,1045.5552771060675
140,13.1804851218,55.7051362666,97,119.99800034256859,1341.4356881340545,1164.5377799396008,1026.3263399192567
141,13.1815172823,55.7060537426,12,359.32772596554094,1427.23483015837,1250.3369219639162,1112.125481943572
142,13.1793546603,55.7067582331,32,388.54205413987245,1257.5467542216797,1080.648846027226,942.4374060068822
143,13.1786010192,55.7062667281,37,330.6782290813203,1199.682929163128,1022.7850209686743,884.5735809483301
144,13.1732927651,55.7066599321,23,706.3547651138896,1316.5036317831878,1139.605723588734,1001.3942835683902
145,13.1728340271,55.7066763156,45,749.3239199220193,1359.4727865913176,1182.5748783968638,1044.3634383765195
146,13.1723097551,55.7067254661,67,746.9224567396633,1357.0713234089615,1180.1734152145077,1041.9619751941636
147,13.1718182501,55.7068073836,89,765.9073225673507,1376.0561892366488,1199.158281042195,1060.946841021851
148,13.1712939781,55.7062175776,8,789.3154330839517,1399.4642997532499,1222.566391558796,1084.354951538452
149,13.1712612111,55.7057424561,7,842.9505076544369,1453.0993743237354,1276.2014661292817,1137.9900261089374
150,13.1746689791,55.7065780146,87,633.8182393252581,1243.9671059945563,1067.0691978001025,928.8577577797587
151,13.17414470710,55.70564415510,54,678.3582840755122,1288.5071507448104,1111.6092425503566,973.3978025300125
152,13.1737187361,55.7060045921,34,649.7495210597838,1259.898387729082,1083.0004795346283,944.7890395142842
153,13.1718837841,55.7063650291,23,765.9073225673507,1376.0561892366488,1199.158281042195,1060.946841021851
154,13.1718510171,55.7060865096,67,842.9505076544369,1453.0993743237354,1276.2014661292817,1137.9900261089374
155,13.1789614562,55.7060209756,89,296.21449419740765,1165.2191942792151,988.3212860847615,850.1098460644175
156,13.1793874273,55.7063158786,54,388.54205413987245,1257.5467542216797,1080.648846027226,942.4374060068822
157,13.1801083013,55.7067254661,23,439.33220495241267,1334.7655779800443,1157.8676697855906,1019.6562297652465
158,13.1797970148,55.7069712186,45,477.55073505956955,1372.984108087201,1196.0861998927473,1057.8747598724033
159,13.1813206803,55.7025149065,43,920.528420815031,1078.925250904783,902.0273427103294,763.8159026899855
160,13.1811568453,55.7020725520,32,866.8882143259779,1025.2850444157298,848.3871362212764,710.1756962009322
161,13.1824019913,55.7023510715,12,621.726752430169,1097.0643701086258,920.1664619141721,781.9550218938282
162,13.1817138843,55.7039730381,10,176.47696006666735,1343.6024372489878,1166.704529054534,1028.4930890341902
163,13.1809274763,55.7039730381,23,128.81246392934776,1364.170619042981,1187.2727108485271,1049.061270828183
164,13.1813206803,55.7042679411,98,144.99467147753185,1375.0847258381234,1198.1868176436697,1059.9753776233256
165,13.1826641273,55.7056769221,70,315.245806265293,1444.5161625902983,1267.6182543958446,1129.4068143755003
166,13.1829590303,55.7041532566,56,259.2806143316536,1260.7987829840015,1083.9008747895477,945.6894347692039
167,13.1816811173,55.7068893011,74,447.0899497063252,1473.6584185893953,1296.7605103949415,1158.5490703745972
168,13.1772739557,55.6955519189,23,1680.00,640.00,1040.00,1280.00
169,13.1766022322,55.6951423314,24,1760.00,640.00,1090.00,1350.00
170,13.1775524752,55.6947982778,34,1810.00,740.00,1170.00,1420.00
171,13.1819268698,55.7053820191,56,227.70441659768468,1433.3658467418222,1256.4679385473685,1118.2564985270242
172,13.1817302678,55.7051854171,78,227.70441659768468,1433.3658467418222,1256.4679385473685,1118.2564985270242
173,13.1823036903,55.7044481596,32,206.40808628243684,1313.6713110332184,1136.7734028387647,998.5619628184206
174,13.1824511418,55.7047102956,56,242.5487112627495,1374.9703567746515,1198.0724485801977,1059.8610085598536
175,13.1824839088,55.7051854171,74,242.5487112627495,1374.9703567746515,1198.0724485801977,1059.8610085598536
176,13.1820579378,55.7047922131,34,230.54639289573302,1362.968038407635,1186.0701302131813,1047.858690192837
177,13.1809766268,55.7028917270,56,803.0546333529197,986.787374322723,809.8894661282696,671.6780261079255
178,13.1777543199,55.7062077475,23,382.2913060461585,1157.1062970284624,980.2083888340088,841.9969488136646
179,13.1784424270,55.7057326260,21,330.4074648452649,1131.0262236313579,954.1283154369042,815.9168754165601
180,13.1780492229,55.7060275290,83,358.70665431043255,1102.7270341661902,925.8291259717365,787.6176859513926
181,13.1723641483,55.7059456115,45,818.3212683944591,1428.4701350637574,1251.5722268693037,1113.3607868489594
182,13.1724624493,55.7063715825,43,715.2023809046215,1325.3512475739196,1148.453339379466,1010.241899359122
183,13.1723149978,55.7057653930,45,795.9198573860831,1406.0687240553814,1229.1708158609276,1090.9593758405836
184,13.1674327147,55.7005554399,22,1621.9694520639646,1001.753773655726,824.8558654612726,784.8304737373312
185,13.1664824717,55.7006373574,34,1684.1089073940361,1063.893228985798,886.9953207913444,846.969929067403
186,13.1679733702,55.7005390564,56,1590.622564029476,970.406885621238,793.5089774267846,753.4835857028429
187,13.1690219142,55.7006865079,89,1525.2053150977176,904.9896366894793,728.0917284950259,688.0663367710843
188,13.1690382977,55.7004407554,41,1525.2053150977176,904.9896366894793,728.0917284950259,688.0663367710843
189,13.1675310157,55.7014892994,2,1420.2889461836385,802.6387238337601,625.7408156393067,584.528965361472
190,13.1669412097,55.7016203674,29,1456.2648559286208,838.6146335787425,661.7167253842891,620.5048751064544
191,13.1681863557,55.7020463384,34,1372.178671255454,754.5284489055754,577.630540711122,536.4186904332873
192,13.1681044382,55.7015220664,21,1372.178671255454,754.5284489055754,577.630540711122,536.4186904332873
193,13.1680389042,55.7000639349,22,1590.622564029476,970.406885621238,793.5089774267846,753.4835857028429
194,13.1676784672,55.7000967019,33,1621.9694520639646,1001.753773655726,824.8558654612726,784.8304737373312
195,13.1690382977,55.6999984009,34,1525.2053150977176,904.9896366894793,728.0917284950259,688.0663367710843
196,13.1700704582,55.6990481578,98,2129.9682787628194,845.0820624218488,1021.9799706163022,1439.094638421818
197,13.1708077158,55.6989170898,60,2159.7029796839684,874.816763342998,1051.7146715374515,1468.8293393429674
198,13.1736256778,55.6986221868,34,1511.4692231542235,50.035534677601,226.9334428720545,648.096204972215
199,13.1740188818,55.6984255848,87,1461.4336884766226,0.0,176.8979081944535,598.060670294614
200,13.1745923044,55.6981142983,23,1506.07031766224,44.6366291856176,221.53453738007107,642.6972994802315
201,13.1750674259,55.6978357788,32,1481.4039050201077,87.9898049227636,264.88771311721706,682.0023809227334
202,13.1731149664,55.6967537006,44,1660.147938581525,375.2617222405544,552.1596304350079,969.2742982405241
203,13.1728859085,55.6968555041,22,1688.3727989286008,403.48658258763015,580.3844907820836,997.4991585875998
204,13.1726313997,55.6969700331,44,1688.3727989286008,403.48658258763015,580.3844907820836,997.4991585875998
205,13.1723005382,55.6971609147,22,1757.2173458134366,472.3311294724659,649.2290376669193,1066.3437054724352
206,13.1719442258,55.6972881691,97,1757.2173458134366,472.3311294724659,649.2290376669193,1066.3437054724352
207,13.1715370117,55.6974917762,68,1833.3778391481883,548.4916228072177,725.3895310016711,1142.504198807187
208,13.1713206792,55.6976190306,66,1833.3778391481883,548.4916228072177,725.3895310016711,1142.504198807187
209,13.1709898178,55.6978099122,44,1833.3778391481883,548.4916228072177,725.3895310016711,1142.504198807187
210,13.1707225835,55.6979244412,66,1868.9037502731235,584.0175339321531,760.9154421266065,1178.0301099321223
211,13.1704426238,55.6980007938,76,1893.2683226397658,608.3821062987954,785.2800144932488,1202.3946822987648
212,13.1701626641,55.6981789500,44,1905.7570241204112,620.8708077794404,797.7687159738938,1214.8833837794098
213,13.1698699790,55.6983062044,66,2039.1691793076757,754.2829629667053,931.1808711611587,1348.2955389666747
214,13.1703662712,55.6983825571,77,1905.7570241204112,620.8708077794404,797.7687159738938,1214.8833837794098
215,13.1701753895,55.6985098115,33,2056.9627895346307,772.0765731936604,948.9744813881138,1366.0891491936295
216,13.1709007397,55.6981407737,77,1868.9037502731235,584.0175339321531,760.9154421266065,1178.0301099321223
217,13.1711297976,55.6980135193,66,1833.3778391481883,548.4916228072177,725.3895310016711,1142.504198807187
218,13.1714733845,55.6978735394,33,1833.3778391481883,548.4916228072177,725.3895310016711,1142.504198807187
219,13.1716897170,55.6978099122,77,2310.644878479136,1025.7586621381658,1202.6565703326196,1619.7712381381352
220,13.1718551478,55.6976953832,89,1757.2173458134366,472.3311294724659,649.2290376669193,1066.3437054724352
221,13.1721096566,55.6975681288,76,1757.2173458134366,472.3311294724659,649.2290376669193,1066.3437054724352
222,13.1723259891,55.6975045016,4,1757.2173458134366,472.3311294724659,649.2290376669193,1066.3437054724352
223,13.1725550470,55.6973645218,23,1757.2173458134366,472.3311294724659,649.2290376669193,1066.3437054724352
224,13.1727586541,55.6972499928,9,1688.3727989286008,403.48658258763015,580.3844907820836,997.4991585875998
225,13.1729240848,55.6971609147,87,1688.3727989286008,403.48658258763015,580.3844907820836,997.4991585875998
226,13.1732422208,55.6970845621,55,1628.6573033684467,343.77108702747574,520.6689952219292,937.7836630274455
227,13.1689919235,55.6990315545,44,2034.0499064208784,749.1636900799078,926.0615982743612,1343.1762660798772
228,13.1688010419,55.6991333581,34,2034.0499064208784,749.1636900799078,926.0615982743612,1343.1762660798772
229,13.1687374147,55.6992987888,16,2034.0499064208784,749.1636900799078,926.0615982743612,1343.1762660798772
230,13.1690428253,55.6995151213,51,1525.2053150977176,904.9896366894793,728.0917284950259,688.0663367710843
231,13.1685083568,55.6995151213,88,1556.4930392885776,936.2773608803391,759.3794526858857,719.354060961944
232,13.1681902208,55.6995787485,90,1590.622564029476,970.406885621238,793.5089774267846,753.4835857028429
233,13.1681011427,55.6990442800,67,2073.8314994878883,788.9452831469177,965.8431913413712,1382.957859146887
234,13.1683047497,55.6989933782,55,2064.188277946002,779.3020616050314,956.1999697994848,1373.3146376050006
235,13.1684447296,55.6989679273,12,2064.188277946002,779.3020616050314,956.1999697994848,1373.3146376050006
236,13.1686737875,55.6988788492,44,2034.0499064208784,749.1636900799078,926.0615982743612,1343.1762660798772
237,13.1688646691,55.6987643203,97,2034.0499064208784,749.1636900799078,926.0615982743612,1343.1762660798772
238,13.1769707750,55.6995914739,6,1229.0166485772152,412.54505890869325,382.19477222100693,532.8118205771514
239,13.1679357119,55.6995405722,88,1590.622564029476,970.406885621238,793.5089774267846,753.4835857028429
240,13.1675157724,55.6995787485,34,1621.9694520639646,1001.753773655726,824.8558654612726,784.8304737373312
241,13.1677702812,55.6993242397,34,2092.642257615576,807.7560412746056,984.6539494690591,1401.7686172745748
242,13.1672994399,55.7001132170,86,1652.5346908370234,1032.3190124287848,855.4211042343312,815.3957125103898
243,13.1670576565,55.7003550004,38,1652.5346908370234,1032.3190124287848,855.4211042343312,815.3957125103898
244,13.1670831074,55.7005713329,14,1652.5346908370234,1032.3190124287848,855.4211042343312,815.3957125103898
245,13.1670449311,55.7008512926,44,1652.5346908370234,1032.3190124287848,855.4211042343312,815.3957125103898
246,13.1670449311,55.7010167233,54,1652.5346908370234,1032.3190124287848,855.4211042343312,815.3957125103898
247,13.1675539487,55.7009785470,44,1621.9694520639646,1001.753773655726,824.8558654612726,784.8304737373312
248,13.1680247900,55.7009530961,55,1590.622564029476,970.406885621238,793.5089774267846,753.4835857028429
249,13.1695772938,55.7008894689,90,1391.5573847680648,771.3417063598263,594.4437981653729,554.4184064414316
250,13.1690428253,55.7009276452,34,1391.5573847680648,771.3417063598263,594.4437981653729,554.4184064414316
251,13.1685592585,55.7009530961,58,1556.4930392885776,936.2773608803391,759.3794526858857,719.354060961944
252,13.1669176767,55.7000877661,32,1652.5346908370234,1032.3190124287848,855.4211042343312,815.3957125103898
253,13.1665613643,55.7001641188,23,1684.1089073940361,1063.893228985798,886.9953207913444,846.969929067403
254,13.1685592585,55.6998841591,44,1556.4930392885776,936.2773608803391,759.3794526858857,719.354060961944
255,13.1680247900,55.6998587082,78,1590.622564029476,970.406885621238,793.5089774267846,753.4835857028429
256,13.1703153694,55.6996805520,56,2136.364010816112,851.4777944751418,1028.3757026695953,1445.4903704751111
257,13.1702644676,55.6994769450,78,2136.364010816112,851.4777944751418,1028.3757026695953,1445.4903704751111
258,13.1695900193,55.6997314538,98,1494.9556098898547,874.7399314816166,697.8420232871632,657.8166315632216
259,13.1708625634,55.7041217309,66,1132.4133884484377,812.3235164072355,635.4256082127821,497.2141681924381
260,13.1709643669,55.7038417712,87,1053.4111754021715,733.3213033609688,556.4233951665154,418.2119551461715
261,13.1703789966,55.7038672221,76,1178.3993064794445,858.3094344382423,681.4115262437889,543.2000862234448
262,13.1699081553,55.7038926730,65,1178.440899400916,858.351027359714,681.4531191652605,543.2416791449165
263,13.1694882157,55.7038926730,44,1178.440899400916,858.351027359714,681.4531191652605,543.2416791449165
264,13.1691573543,55.7039053984,54,1178.440899400916,858.351027359714,681.4531191652605,543.2416791449165
265,13.1692337069,55.7041217309,34,1178.440899400916,858.351027359714,681.4531191652605,543.2416791449165
266,13.1685465331,55.7041726327,54,1236.9390685335593,916.8491964923571,739.9512882979037,601.7398482775598
267,13.1703026440,55.7034854589,43,1327.5904462118037,709.940223861925,533.0423156674716,491.83046538963697
268,13.1683556515,55.7027346579,32,1292.0967837878634,822.0502627767024,645.152354582249,506.94091456190506
269,13.1696918228,55.7018184261,21,1313.1956018222845,695.5453794724062,518.6474712779528,477.43562100011815
270,13.1710279941,55.7013475848,12,1325.732259235578,679.2825409719642,502.3846327775107,462.35924105356935
271,13.1715751881,55.7039690256,23,1053.4111754021715,733.3213033609688,556.4233951665154,418.2119551461715
272,13.1797101227,55.6994564144,34,1226.0234082271845,498.85978890952856,540.677499764879,691.2945481210234
273,13.1795199867,55.6996465504,34,1226.0234082271845,498.85978890952856,540.677499764879,691.2945481210234
274,13.1791173458,55.6996912882,65,1226.0234082271845,498.85978890952856,540.677499764879,691.2945481210234
275,13.1788824720,55.7000268223,78,1162.4190870713019,435.255467753646,477.07317860899644,627.6902269651408
276,13.1786475981,55.7001722204,93,1131.3010601653857,443.89169638617517,485.70940724152564,636.32645559767
277,13.1785022000,55.7003399875,98,1120.6748649607005,454.51789159086064,496.3356024462111,646.9526508023555
278,13.1782561417,55.7004182788,87,1090.3521879709356,484.84056858062564,526.658279435976,677.2753277921204
279,13.1780548212,55.7006307837,45,1067.339340154182,507.85341639737914,549.6711272527297,656.50156646294
280,13.1800232879,55.6995235212,4,2156.5010706452385,1453.1100798274042,1494.927790682755,1645.5448390388988
281,13.1798443363,55.6996465504,33,1226.0234082271845,498.85978890952856,540.677499764879,691.2945481210234
282,13.1795870935,55.6998702398,50,1226.0234082271845,498.85978890952856,540.677499764879,691.2945481210234
283,13.1793634041,55.7000380068,8,1226.0234082271845,498.85978890952856,540.677499764879,691.2945481210234
284,13.1791397148,55.7001834049,87,1131.3010601653857,443.89169638617517,485.70940724152564,636.32645559767
285,13.1789160254,55.7002281428,6,1131.3010601653857,443.89169638617517,485.70940724152564,636.32645559767
286,13.1801575015,55.6997136572,55,2109.705593897818,1406.3146030799833,1448.132313935334,1598.7493622914778
287,13.1798890742,55.7000044534,90,1010.1865555836632,1079.4967515932644,902.5988433988108,764.3874033784668
288,13.1797324916,55.7000939292,805,969.6515897105899,1038.961785720191,862.0638775257374,723.8524375053933
289,13.1795870935,55.7002281428,34,969.6515897105899,1038.961785720191,862.0638775257374,723.8524375053933
290,13.1799561810,55.7002840651,56,969.6515897105899,1038.961785720191,862.0638775257374,723.8524375053933
291,13.1800680257,55.7001498515,35,1010.1865555836632,1079.4967515932644,902.5988433988108,764.3874033784668
292,13.1802469772,55.6999709000,90,2109.705593897818,1406.3146030799833,1448.132313935334,1598.7493622914778
293,13.1805825113,55.6999597155,4,2109.705593897818,1406.3146030799833,1448.132313935334,1598.7493622914778
294,13.1804371132,55.6997583951,56,2109.705593897818,1406.3146030799833,1448.132313935334,1598.7493622914778
295,13.1808509386,55.6998926087,44,2109.705593897818,1406.3146030799833,1448.132313935334,1598.7493622914778
296,13.1806496182,55.7003176185,88,1053.3423102165552,1122.6525062261567,945.754598031703,807.5431580113589
297,13.1803923753,55.7002393273,66,1010.1865555836632,1079.4967515932644,902.5988433988108,764.3874033784668
298,13.1802693462,55.7004070943,44,1010.1865555836632,1079.4967515932644,902.5988433988108,764.3874033784668
299,13.1796989382,55.7006195992,77,969.6515897105899,1038.961785720191,862.0638775257374,723.8524375053933
300,13.1806272492,55.7004742011,100,1010.1865555836632,1079.4967515932644,902.5988433988108,764.3874033784668
301,13.1805601424,55.7006084148,54,1010.1865555836632,1079.4967515932644,902.5988433988108,764.3874033784668
302,13.1806048803,55.7009998712,6,1010.1865555836632,1079.4967515932644,902.5988433988108,764.3874033784668
303,13.1808733075,55.7010781625,43,941.1380780627447,1067.2391247277194,890.3412165332658,752.1297765129218
304,13.1808621231,55.7008321041,76,1010.1865555836632,1079.4967515932644,902.5988433988108,764.3874033784668
305,13.1811081814,55.7009215799,90,941.1380780627447,1067.2391247277194,890.3412165332658,752.1297765129218
306,13.1813654242,55.7010557935,89,994.9136896348671,1121.0147362998418,944.1168281053882,805.9053880850443
307,13.1810522591,55.7006307837,56,1053.3423102165552,1122.6525062261567,945.754598031703,807.5431580113589
308,13.1813318708,55.7006978905,78,1053.3423102165552,1122.6525062261567,945.754598031703,807.5431580113589
309,13.1816114825,55.7005524924,32,1094.3666785579105,1163.676874567512,986.7789663730583,848.5675263527144
310,13.1817345117,55.7007873663,5,999.2932701956208,1125.3943168605956,948.496408666142,810.2849686457978
311,13.1816114825,55.7009439488,38,994.9136896348671,1121.0147362998418,944.1168281053882,805.9053880850443
312,13.1820812303,55.7006531526,54,999.2932701956208,1125.3943168605956,948.496408666142,810.2849686457978
313,13.1819470166,55.7008544731,67,999.2932701956208,1125.3943168605956,948.496408666142,810.2849686457978
314,13.1818463564,55.7004070943,44,1094.3666785579105,1163.676874567512,986.7789663730583,848.5675263527144
315,13.1814996378,55.7002616962,90,1094.3666785579105,1163.676874567512,986.7789663730583,848.5675263527144
316,13.1800232879,55.6998590553,58,2156.5010706452385,1453.1100798274042,1494.927790682755,1645.5448390388988
317,13.1820141234,55.7024202988,55,595.2826143401924,1070.6202320186492,893.7223238241955,755.5108838038516
318,13.1818239875,55.7019617356,65,961.362914540058,1119.75974462981,942.8618364353564,804.6503964150124
319,13.1818463564,55.7013801432,76,999.2932701956208,1125.3943168605956,948.496408666142,810.2849686457978
320,13.1810746280,55.7013577742,86,941.1380780627447,1067.2391247277194,890.3412165332658,752.1297765129218
321,13.1811752882,55.7017044928,39,866.8882143259779,1025.2850444157298,848.3871362212764,710.1756962009322
322,13.1816562204,55.7016933083,55,994.9136896348671,1121.0147362998418,944.1168281053882,805.9053880850443
323,13.1820253079,55.7016485704,66,961.362914540058,1119.75974462981,942.8618364353564,804.6503964150124
324,13.1823720265,55.7016709394,87,961.362914540058,1119.75974462981,942.8618364353564,804.6503964150124
325,13.1805377735,55.7018051530,76,850.5104864403253,1008.9073165300772,832.0094083356238,693.7979683152798
326,13.1799226276,55.7018610754,65,793.5643501306675,951.9611802204192,775.0632720259658,636.8518320056219
327,13.1795759091,55.7018498909,56,793.5643501306675,951.9611802204192,775.0632720259658,636.8518320056219
328,13.1828865121,55.7021183182,96,985.9280121734006,1144.3248422631527,967.4269340686991,829.2154940483549
